[gd_scene load_steps=3 format=3 uid="uid://dnyi7uivog3do"]

[ext_resource type="Script" path="res://gs_dreamlo_work/dreamlo_work.gd" id="1"]
[ext_resource type="PackedScene" path="res://gs_dreamlo_work/work_high_scores.tscn" id="2"]

[node name="DreamLoWork" type="Node"]
script = ExtResource("1")
config_filename = "res://gs_dreamlo_work/dreamlo.cfg"

[node name="Container" type="Control" parent="."]
layout_mode = 3
anchors_preset = 15
anchor_right = 1.0
anchor_bottom = 1.0
offset_bottom = -92.0
grow_horizontal = 2
grow_vertical = 2

[node name="_message" type="Label" parent="Container"]
layout_mode = 1
anchors_preset = 12
anchor_top = 1.0
anchor_right = 1.0
anchor_bottom = 1.0
offset_left = 4.0
offset_top = 25.0
offset_right = 4.0
offset_bottom = 51.0
grow_horizontal = 2
grow_vertical = 0
text = "message"
horizontal_alignment = 1
vertical_alignment = 1

[node name="HighScores" parent="Container" instance=ExtResource("2")]
layout_mode = 0
anchor_right = 0.0
anchor_bottom = 0.0
