[gd_resource type="Resource" script_class="DreamLoSettingsResource" load_steps=2 format=3 uid="uid://cb4r8dbnipva2"]

[ext_resource type="Script" path="res://addons/gs_dreamlo/resources/dreamlo_settings_resource.gd" id="1"]

[resource]
script = ExtResource("1")
uri = "https://www.dreamlo.com/lb"
private_code = "private"
public_code = "public"
url = "https://www.dreamlo.com/lb/private"
